Name,BirthDate,Age,Sex,Division,BodyweightKg,WeightClassKg,Best3BenchKg,TotalKg,Event,Equipment,Place
Cody Howell,,36,M,O-UL-U,123.83,125,283.5,283.5,B,Unlimited,1
Kyle Eveland,,30,M,O-UL-U,117.48,125,272.16,272.16,B,Unlimited,2
John Berry,,24,M,O-UL-U,87.09,90,251.74,251.74,B,Unlimited,1
Drex Welch,,46,M,M-UL-U,132,140,337.93,337.93,B,Unlimited,1
Shawn Schiff,,45,M,M-UL-U,87.09,90,249.48,249.48,B,Unlimited,1
Randy Ater,,32,M,O-R-U,132.45,140,199.58,199.58,B,Raw,1
Ethan Johnson #8,,20,M,O-R-U,118.39,125,142.88,142.88,B,Raw,1
Charles McQuirt,,36,M,O-R-U,103.87,110,,,B,Raw,DQ
Travis Abner,,27,M,O-R-U,97.52,100,147.42,147.42,B,Raw,1
