Place,Sex,Name,Event,Division,WeightClassKg,Equipment,State,BodyweightKg,Squat1Kg,Squat2Kg,Squat3Kg,Best3SquatKg,Bench1Kg,Bench2Kg,Bench3Kg,Best3BenchKg,Deadlift1Kg,Deadlift2Kg,Deadlift3Kg,Best3DeadliftKg,TotalKg,BirthYear
1,M,Doug Miller,B,MR-M1b,93,Raw,MN,87.7,,,,,155,165,-170,165,,,,,165,1968
1,M,Derek Anderson,B,MR-M1b,105,Raw,IA,104,,,,,192.5,197.5,205,205,,,,,205,1970
1,M,Don Szambelan,B,MR-M3b,105,Raw,MN,96.2,,,,,112.5,-125,-125,112.5,,,,,112.5,1946
1,M,Brian Trussell,B,MR-O,93,Raw,MN,92.2,,,,,132.5,140,142.5,142.5,,,,,142.5,1982
1,M,Jeremy Bloemke,B,MR-O,120+,Raw,MN,143,,,,,185,-192.5,-192.5,185,,,,,185,1985
1,M,Caleb Scheel,B,MR-T1,74,Raw,MN,72,,,,,65,82.5,-85,82.5,,,,,82.5,2002
1,F,Lynn Keller,B,FR-M1a,57,Raw,MN,54.2,,,,,47.5,50,-52.5,50,,,,,50,1972
DQ,F,Lisa Johnson,B,FR-M1b,72,Raw,MN,63.9,,,,,-62.5,-62.5,-67.5,,,,,,,
1,M,Brian Josephson,SBD,M-O,93,Single-ply,MN,91.9,147.5,155,162.5,162.5,125,127.5,132.5,132.5,190,197.5,205,205,500,1982
1,M,Kevin Jenkins,SBD,MR-Jr,74,Raw,MN,72.9,197.5,215,-227.5,215,142.5,-152.5,-152.5,142.5,250,272.5,280,280,637.5,1993
1,M,Patrick Binder,SBD,MR-Jr,83,Raw,MN,81.7,185,195,205,205,132.5,140,142.5,142.5,222.5,237.5,250,250,597.5,1995
2,M,Arthur Allie,SBD,MR-Jr,83,Raw,MN,81.6,170,182.5,195,195,102.5,-107.5,107.5,107.5,187.5,195,217.5,217.5,520,1993
3,M,James Sedahl,SBD,MR-Jr,83,Raw,MN,80.5,160,170,-177.5,170,100,105,-107.5,105,222.5,235,242.5,242.5,517.5,1992
1,M,Alex Hahn,SBD,MR-Jr,93,Raw,MN,90.8,247.5,260,-272.5,260,125,132.5,137.5,137.5,257.5,277.5,287.5,287.5,685,1994
2,M,Alex Nonnemacher,SBD,MR-Jr,93,Raw,MN,92.4,142.5,150,162.5,162.5,97.5,105,-107.5,105,182.5,197.5,207.5,207.5,475,1993
1,M,Austin Hiler,SBD,MR-Jr,120,Raw,MN,118.2,215,222.5,230,230,150,157.5,-160,157.5,235,-250,-250,235,622.5,1996
1,M,Blake Hanson,SBD,MR-M1a,105,Raw,MN,104,227.5,237.5,-250,237.5,130,-132.5,132.5,132.5,230,240,-247.5,240,610,1971
1,M,Steve Born,SBD,MR-M1a,120,Raw,MN,109.2,195,205,215,215,145,-150,,145,237.5,250,262.5,262.5,622.5,
1,M,Craig Vosper,SBD,MR-M1b,105,Raw,MN,104.4,175,180,-182.5,180,-130,137.5,-140,137.5,187.5,192.5,-195,192.5,510,1968
1,M,Trevor Keller,SBD,MR-M1b,120,Raw,MN,113.2,220,230,-235,230,160,-177.5,-177.5,160,227.5,-235,235,235,625,1969
1,M,Callistus Schissel,SBD,MR-M1b,120+,Raw,MN,142.6,230,260,,260,230,-246,-246,230,230,-260,,230,720,1969
1,M,Bruce Piburn,SBD,MR-M2a,120+,Raw,MN,126.8,140,-150,150,150,100,-107.5,-107.5,100,155,162.5,-170,162.5,412.5,1965
1,M,Peter Kalvoda,SBD,MR-M2b,83,Raw,MN,74.9,110,117.5,-127.5,117.5,75,85,-95,85,120,130,135,135,337.5,1960
1,M,Steve Nelson,SBD,MR-M2b,93,Raw,MN,92.1,160,-185,185,185,115,120,122.5,122.5,205,-232.5,232.5,232.5,540,1958
2,M,Marc Hagberg,SBD,MR-M2b,93,Raw,MN,86.6,-162.5,167.5,177.5,177.5,92.5,-100,-100,92.5,165,175,185,185,455,1959
1,M,Gary Gervais Jr,SBD,MR-M2b,120,Raw,MN,115.2,205,217.5,225,225,155,-162.5,-162.5,155,227.5,245,255,255,635,1960
1,M,David Ross,SBD,MR-M3a,120,Raw,MN,118.9,150,180,182.5,182.5,142.5,152.5,157.5,157.5,155,185,192.5,192.5,532.5,1956
1,M,Sid Reid,SBD,MR-M3b,83,Raw,MN,82.1,125,132.5,137.5,137.5,72.5,77.5,-80,77.5,150,155,160,160,375,1948
1,M,Jerry Shetka,SBD,MR-M3b,93,Raw,MN,90.4,162.5,170,177.5,177.5,90,95,-100,95,250,260,-265,260,532.5,1948
1,M,Kong Lor,SBD,MR-O,59,Raw,MN,58.2,130,137.5,-145,137.5,92.5,97.5,-102.5,97.5,175,185,187.5,187.5,422.5,1988
2,M,Cable Thompson,SBD,MR-O,59,Raw,MN,58.7,105,112.5,117.5,117.5,60,65,-70,65,177.5,187.5,192.5,192.5,375,1986
1,M,Joe Lee,SBD,MR-O,74,Raw,MN,73.2,180,-192.5,192.5,192.5,112.5,122.5,-132.5,122.5,215,227.5,-232.5,227.5,542.5,
2,M,Taryn Blair,SBD,MR-O,74,Raw,MN,72.3,167.5,177.5,-182.5,177.5,107.5,115,120,120,182.5,-187.5,187.5,187.5,485,1992
3,M,Michael Cook #2,SBD,MR-O,74,Raw,MN,73.5,130,137.5,-142.5,137.5,95,102.5,-105,102.5,175,195,197.5,197.5,437.5,
4,M,Jason Hayden,SBD,MR-O,74,Raw,MN,72.5,142.5,150,-157.5,150,100,102.5,-107.5,102.5,145,160,175,175,427.5,1990
5,M,Justin Croteau,SBD,MR-O,74,Raw,MN,68.1,127.5,137.5,142.5,142.5,90,97.5,102.5,102.5,157.5,167.5,177.5,177.5,422.5,1989
1,M,Dusty Miller,SBD,MR-O,83,Raw,MN,79.9,207.5,-227.5,-227.5,207.5,125,-137.5,-137.5,125,245,260,,260,592.5,1985
2,M,Brian Dawley,SBD,MR-O,83,Raw,MN,82.1,165,180,-190,180,115,-122.5,-122.5,115,182.5,195,202.5,202.5,497.5,1982
DQ,M,Wilson Karlstrom,SBD,MR-O,83,Raw,MN,81.4,150,-157.5,162.5,162.5,-127.5,-132.5,-137.5,,205,-220,-220,205,,1992
1,M,Brett Herring,SBD,MR-O,93,Raw,IA,92,217.5,230,235,235,160,175,177.5,177.5,225,240,-250,240,652.5,1992
2,M,Tyler Johnson,SBD,MR-O,93,Raw,MN,87.3,182.5,192.5,205,205,142.5,147.5,-152.5,147.5,227.5,240,250,250,602.5,1984
3,M,Nick Sweeney,SBD,MR-O,93,Raw,MN,91.5,205,220,227.5,227.5,160,165,-172.5,165,205,-220,-227.5,205,597.5,
4,M,Chris Lauer,SBD,MR-O,93,Raw,MN,91.4,165,175,182.5,182.5,-140,145,150,150,235,242.5,252.5,252.5,585,1981
5,M,Jordan Moorhead #2,SBD,MR-O,93,Raw,MN,86.9,165,180,192.5,192.5,105,-115,122.5,122.5,215,230,-237.5,230,545,1988
6,M,Tait Teigen,SBD,MR-O,93,Raw,MN,88.5,162.5,172.5,182.5,182.5,117.5,127.5,137.5,137.5,192.5,202.5,210,210,530,1989
7,M,Edvard Aspnes,SBD,MR-O,93,Raw,MN,88.3,135,145,155,155,115,120,125,125,190,205,217.5,217.5,497.5,1987
8,M,Seth Olive,SBD,MR-O,93,Raw,MN,91.6,145,155,165,165,110,120,-130,120,185,200,207.5,207.5,492.5,1992
9,M,Lee Carter,SBD,MR-O,93,Raw,MN,91.1,145,157.5,167.5,167.5,100,107.5,-112.5,107.5,202.5,-220,-222.5,202.5,477.5,1987
1,M,Airion Britt,SBD,MR-O,105,Raw,MN,104.3,247.5,255,-272.5,255,150,157.5,-165,157.5,267.5,282.5,295,295,707.5,1990
2,M,Tyler Caldwell,SBD,MR-O,105,Raw,MN,103.3,205,220,230,230,132.5,142.5,147.5,147.5,250,270,292.5,292.5,670,1988
3,M,Brandon Lazarz,SBD,MR-O,105,Raw,MN,104.4,207.5,225,232.5,232.5,145,155,162.5,162.5,237.5,260,265,265,660,1985
4,M,Adam Schlosser,SBD,MR-O,105,Raw,MN,101.8,200,215,227.5,227.5,157.5,170,-182.5,170,225,240,252.5,252.5,650,1990
5,M,Dave Morin,SBD,MR-O,105,Raw,MN,102.6,215,227.5,-235,227.5,172.5,-182.5,-182.5,172.5,215,227.5,245,245,645,1982
6,M,Colin White,SBD,MR-O,105,Raw,MN,103.4,202.5,-215,-215,202.5,-175,180,-190,180,260,-272.5,-272.5,260,642.5,1992
7,M,Brent Wittwer,SBD,MR-O,105,Raw,MN,99.3,182.5,192.5,200,200,-132.5,-132.5,137.5,137.5,245,260,-267.5,260,597.5,1981
8,M,Seth Pollard,SBD,MR-O,105,Raw,MN,96,182.5,202.5,-207.5,202.5,130,142.5,-147.5,142.5,215,227.5,235,235,580,1984
9,M,TJ Turner,SBD,MR-O,105,Raw,MN,96.9,165,185,-190,185,102.5,107.5,112.5,112.5,210,232.5,-240,232.5,530,1987
10,M,Chris Ransom,SBD,MR-O,105,Raw,MN,103.1,137.5,150,162.5,162.5,92.5,97.5,105,105,180,197.5,220,220,487.5,1989
1,M,Aldon Tibbs,SBD,MR-O,120,Raw,MN,114.9,165,182.5,190,190,125,-127.5,-127.5,125,192.5,215,232.5,232.5,547.5,1981
2,M,Jesse Gavin,SBD,MR-O,120,Raw,MN,106.3,165,182.5,187.5,187.5,127.5,-137.5,-137.5,127.5,190,227.5,-230,227.5,542.5,1978
3,M,Jason Headding,SBD,MR-O,120,Raw,WI,115.6,180,190,195,195,-122.5,122.5,125,125,185,192.5,-207.5,192.5,512.5,1983
DQ,M,Joseph Jaunich,SBD,MR-O,120,Raw,MN,109.5,145,-165,165,165,-125,-140,-140,,145,165,-185,165,,1984
1,M,Ryan Findell,SBD,MR-O,120+,Raw,MN,156.2,202.5,212.5,227.5,227.5,165,170,-182.5,170,262.5,282.5,-290,282.5,680,1985
2,M,Nicholas Leners,SBD,MR-O,120+,Raw,MN,121.8,230,242.5,-247.5,242.5,142.5,152.5,157.5,157.5,230,240,-247.5,240,640,1985
3,M,Jacob Schroeder,SBD,MR-O,120+,Raw,MN,133.8,180,200,-212.5,200,140,150,-160,150,225,240,-265,240,590,1993
1,M,Hayden Ousley,SBD,MR-T1,53,Raw,MN,51.7,80,87.5,-92.5,87.5,32.5,37.5,42.5,42.5,97.5,105,115,115,245,2002
1,M,Ben Mansur,SBD,MR-T1,83,Raw,MN,80.9,140,150,160,160,90,95,-97.5,95,180,192.5,205,205,460,2000
1,M,Anthony Gamez,SBD,MR-T2,59,Raw,MN,58.5,112.5,120,-127.5,120,90,97.5,-102.5,97.5,130,142.5,147.5,147.5,365,1999
1,M,Hank Hanson,SBD,MR-T2,74,Raw,MN,68.7,125,132.5,-142.5,132.5,77.5,82.5,87.5,87.5,137.5,147.5,157.5,157.5,377.5,2000
1,M,Ameeruddeen Shamsul-bahri,SBD,MR-T2,83,Raw,MN,81,165,175,182.5,182.5,137.5,145,152.5,152.5,202.5,,,202.5,537.5,1998
2,M,Alexander Hickman #2,SBD,MR-T2,83,Raw,MN,81,-182.5,182.5,-200,182.5,102.5,-110,-110,102.5,192.5,205,207.5,207.5,492.5,1999
1,M,Nick Miska,SBD,MR-T2,120+,Raw,MN,134.8,142.5,165,182.5,182.5,125,-147.5,147.5,147.5,142.5,165,-187.5,165,495,
1,M,Kieran Walsh,SBD,MR-T3,74,Raw,MN,71.4,120,127.5,-140,127.5,82.5,90,-92.5,90,135,145,150,150,367.5,1998
1,M,Ian Rollman,SBD,MR-T3,93,Raw,MN,87.8,182.5,195,205,205,122.5,132.5,-137.5,132.5,182.5,197.5,210,210,547.5,1997
1,F,Keighley Morrow,SBD,FR-Jr,63,Raw,SD,58.2,97.5,107.5,112.5,112.5,65,70,72.5,72.5,135,150,162.5,162.5,347.5,1993
2,F,Mara Swanson,SBD,FR-Jr,63,Raw,MN,61.9,82.5,90,95,95,57.5,62.5,-67.5,62.5,110,120,127.5,127.5,285,1995
3,F,Katja Piscitelli,SBD,FR-Jr,63,Raw,CA,57.5,67.5,75,-85,75,45,52.5,-55,52.5,80,85,92.5,92.5,220,1996
1,F,Janna Rider,SBD,FR-M1a,84,Raw,MN,82.7,97.5,-105,-105,97.5,40,45,50,50,132.5,145,-162.5,145,292.5,1972
1,F,Rebecca Richnofsky,SBD,FR-M1a,84+,Raw,MN,93.5,-85,85,95,95,52.5,57.5,60,60,115,125,-135,125,280,
1,F,Clare Poulose,SBD,FR-M2a,63,Raw,MN,60.3,-57.5,57.5,65,65,47.5,55,-60,55,77.5,87.5,92.5,92.5,212.5,1964
2,F,Whitney Hanson,SBD,FR-M2a,63,Raw,MN,61.1,60,65,70,70,40,42.5,45,45,85,87.5,90,90,205,1965
1,F,Dede Schidecker,SBD,FR-M2a,72,Raw,MN,67.2,62.5,-70,-77.5,62.5,47.5,-52.5,52.5,52.5,92.5,100,115,115,230,
1,F,Gabriela Bonilla,SBD,FR-O,57,Raw,MN,55.3,105,107.5,-112.5,107.5,60,65,67.5,67.5,132.5,140,150,150,325,1992
2,F,Jessilyn Vizenor,SBD,FR-O,57,Raw,MN,56.9,100,115,-125,115,62.5,-75,-77.5,62.5,115,127.5,132.5,132.5,310,1985
3,F,Jennifer Van Hecke,SBD,FR-O,57,Raw,MN,55.5,85,95,102.5,102.5,52.5,57.5,67.5,67.5,95,105,120,120,290,1983
4,F,Stephanie Sahlstrom,SBD,FR-O,57,Raw,MN,56.5,90,97.5,102.5,102.5,-47.5,50,-52.5,50,90,-97.5,97.5,97.5,250,1990
1,F,Kristi Trussell,SBD,FR-O,63,Raw,MN,58.1,105,110,117.5,117.5,70,75,-80,75,120,130,137.5,137.5,330,1983
2,F,Michelle Beuthling,SBD,FR-O,63,Raw,MN,62.5,80,85,87.5,87.5,42.5,45,47.5,47.5,112.5,120,125,125,260,1990
1,F,Ashley Akehurst,SBD,FR-O,72,Raw,MN,71,110,115,122.5,122.5,65,70,-72.5,70,147.5,160,175,175,367.5,1988
2,F,Alyson Allen,SBD,FR-O,72,Raw,MN,70.9,92.5,105,122.5,122.5,55,-60,-60,55,142.5,155,160,160,337.5,1981
3,F,Megan Jaunich,SBD,FR-O,72,Raw,MN,72,-80,82.5,-90,82.5,55,60,-65,60,87.5,-97.5,102.5,102.5,245,1984
4,F,Michaela Gislason,SBD,FR-O,72,Raw,MN,71.1,75,82.5,-95,82.5,40,45,-50,45,80,87.5,95,95,222.5,1980
DQ,F,JoAnn Schreffler,SBD,FR-O,72,Raw,MN,71.3,85,87.5,92.5,92.5,-70,-70,-70,,112.5,117.5,122.5,122.5,,1978
1,F,Susan Chambers,SBD,FR-O,84,Raw,IL,78.7,130,140,142.5,142.5,62.5,67.5,-72.5,67.5,165,175,182.5,182.5,392.5,1988
2,F,Stephanie Guth,SBD,FR-O,84,Raw,WI,74.6,-110,-110,110,110,-70,70,75,75,132.5,142.5,155,155,340,1989
3,F,Joslyn Solomon,SBD,FR-O,84,Raw,MN,82.5,105,115,122.5,122.5,52.5,60,65,65,137.5,152.5,-157.5,152.5,340,1983
4,F,Meghan Kelly,SBD,FR-O,84,Raw,MN,83.3,70,77.5,82.5,82.5,35,42.5,-50,42.5,82.5,95,105,105,230,1984
1,F,Lynn Dalhed,SBD,FR-O,84+,Raw,MN,108.2,137.5,-147.5,152.5,152.5,75,-80,80,80,152.5,175,-187.5,175,407.5,1980
2,F,Alice Kirchhoff,SBD,FR-O,84+,Raw,MN,86.4,110,115,-117.5,115,65,70,-75,70,125,127.5,137.5,137.5,322.5,1978
3,F,Kristen Ruge,SBD,FR-O,84+,Raw,MN,88.2,105,-117.5,117.5,117.5,62.5,67.5,-70,67.5,102.5,-110,-110,102.5,287.5,
4,F,Rachel Meskill,SBD,FR-O,84+,Raw,MN,87.9,-97.5,100,102.5,102.5,50,55,-60,55,125,-127.5,-127.5,125,282.5,1982
1,F,Jenesis Fonder,SBD,FR-T3,57,Raw,MN,55.7,75,82.5,-92.5,82.5,42.5,52.5,57.5,57.5,87.5,102.5,-107.5,102.5,242.5,1998
1,F,Taylor Klemmensen,SBD,FR-T3,63,Raw,WI,61.2,107.5,115,120,120,65,72.5,-75,72.5,142.5,150,-157.5,150,342.5,1997
1,F,Amanda Lawrence #1,SBD,FR-T3,84,Raw,MN,83.9,170,-180,-180,170,70,75,-80,75,165,175,180,180,425,1997
