Place,Name,BirthDate,Sex,BirthYear,Age,Country,State,Equipment,Division,BodyweightKg,WeightClassKg,Squat1Kg,Squat2Kg,Squat3Kg,Best3SquatKg,Bench1Kg,Bench2Kg,Bench3Kg,Best3BenchKg,Deadlift1Kg,Deadlift2Kg,Deadlift3Kg,Best3DeadliftKg,TotalKg,Event
1,Andrea Deras,,F,2000,22,,NM,Raw,FR-Jr,72.85,76,100,112.5,122.5,122.5,52.5,60,62.5,62.5,100,115,-130,115,300,SBD
2,Mackenzie Schwartz,,F,2001,20,,CO,Raw,FR-Jr,75.35,76,-77.5,77.5,-80,77.5,45,47.5,-50,47.5,112.5,117.5,122.5,122.5,247.5,SBD
DQ,Madeline Pukite,,F,2002,19,,MN,Raw,FR-Jr,95.85,84+,75,77.5,82.5,82.5,-55,-55,,,90,95,105,105,,SBD
1,Precious Andrew,,F,1986,36,,NM,Raw,FR-O,68.15,69,155,-165,170,170,97.5,102.5,105,105,165,192.5,197.5,197.5,472.5,SBD
1,Andrea Deras,,F,2000,22,,NM,Raw,FR-O,72.85,76,100,112.5,122.5,122.5,52.5,60,62.5,62.5,100,115,-130,115,300,SBD
1,Camille Bean,,F,1998,23,,NM,Raw,FR-O,82.35,84,115,125,135,135,62.5,67.5,72.5,72.5,125,140,150,150,357.5,SBD
1,Jessica Brennan,,F,1990,31,,NM,Raw,FR-O,110.45,84+,80,-95,100,100,52.5,62.5,70,70,115,130,-142.5,130,300,SBD
1,Shanti Khalsa,,F,2006,15,,NM,Raw,FR-Sj,83.15,84,92.5,97.5,102.5,102.5,42.5,-47.5,-47.5,42.5,-107.5,122.5,125,125,270,SBD
1,Brooks Eggleston,,M,2002,19,,NM,Raw,MR-Jr,64.55,66,-137.5,137.5,-147.5,137.5,65,67.5,-72.5,67.5,165,175,182.5,182.5,387.5,SBD
1,Arturo Gutierrez,,M,1999,23,,NM,Raw,MR-Jr,72.65,74,147.5,160,165,165,92.5,102.5,-105,102.5,182.5,192.5,200,200,467.5,SBD
1,Brandon Chin,,M,2002,19,,NM,Raw,MR-Jr,82.95,83,150,160,170,170,85,90,-97.5,90,200,212.5,-227.5,212.5,472.5,SBD
1,Hunter Stevens,,M,2000,21,,NM,Raw,MR-Jr,99.45,105,182.5,205,227.5,227.5,130,142.5,-150,142.5,182.5,205,227.5,227.5,597.5,SBD
1,Brooks Eggleston,,M,2002,19,,NM,Raw,MR-O,64.55,66,-137.5,137.5,-147.5,137.5,65,67.5,-72.5,67.5,165,175,182.5,182.5,387.5,SBD
1,Nazareth Garcia-Cano,,M,1998,23,,NM,Raw,MR-O,73.65,74,182.5,187.5,192.5,192.5,107.5,112.5,115,115,237.5,252.5,257.5,257.5,565,SBD
2,Arturo Gutierrez,,M,1999,23,,NM,Raw,MR-O,72.65,74,147.5,160,165,165,92.5,102.5,-105,102.5,182.5,192.5,200,200,467.5,SBD
3,Stephen Rael,,M,1992,29,,NM,Raw,MR-O,69.85,74,-37.5,42.5,-47.5,42.5,40,45,52.5,52.5,-82.5,97.5,107.5,107.5,202.5,SBD
1,Michael Lynam,,M,1991,31,,NM,Raw,MR-O,82.45,83,170,182.5,190,190,-102.5,115,122.5,122.5,190,212.5,227.5,227.5,540,SBD
1,Dennis Jaramillo,,M,1996,26,,NM,Raw,MR-O,86.25,93,160,175,182.5,182.5,122.5,127.5,-132.5,127.5,212.5,-220,-227.5,212.5,522.5,SBD
2,Cristian Zamora,,M,1992,29,,NM,Raw,MR-O,93,93,-142.5,-142.5,142.5,142.5,102.5,107.5,-120,107.5,182.5,220,227.5,227.5,477.5,SBD
3,Tony Donio,,M,1995,26,,NM,Raw,MR-O,87.5,93,145,150,160,160,117.5,122.5,-130,122.5,160,170,-177.5,170,452.5,SBD
1,Hunter Stevens,,M,2000,21,,NM,Raw,MR-O,99.45,105,182.5,205,227.5,227.5,130,142.5,-150,142.5,182.5,205,227.5,227.5,597.5,SBD
1,Donald Vigil,,M,1984,38,,NM,Raw,MR-O,114.85,120,-167.5,172.5,182.5,182.5,-125,132.5,142.5,142.5,-180,190,205,205,530,SBD
2,Thomas Abeyta,,M,1991,31,,NM,Raw,MR-O,108.05,120,175,190,195,195,85,95,-102.5,95,175,187.5,197.5,197.5,487.5,SBD
1,Gonzalo Almeida,,M,1997,24,,NM,Raw,MR-O,133.85,120+,227.5,235,245,245,140,145,155,155,245,260,272.5,272.5,672.5,SBD
DQ,Milton Sanchez,,M,1986,35,,NM,Raw,MR-O,171.4,120+,-145,-150,-150,,125,135,145,145,-185,,,,,SBD
1,Ravi Khalsa,,M,2009,13,,NM,Raw,MR-Sj,88.95,93,85,105,115,115,35,52.5,62.5,62.5,85,-115,-115,85,262.5,SBD
2,Damien Anderson,,M,2008,13,,NM,Raw,MR-Sj,71.45,74,35,45,-55,45,30,40,-41,40,65,75,82.5,82.5,167.5,SBD
1,Randal Whitt,,M,1963,58,,NM,Raw,MR-M2,115.5,120,,,,,150,155,-157.5,155,,,,,155,B
1,Corey Strickland,,M,1984,37,,NM,Raw,MR-O,141.55,120+,,,,,185,192.5,200,200,,,,,200,B
