Place,WeightClassKg,Division,Sex,Name,BirthDate,BirthYear,Country,BodyweightKg,Best3SquatKg,Best3BenchKg,Best3DeadliftKg,TotalKg,Event,Equipment
1,59,Open,M,Muji Setiono,1993-03-13,,Indonesia,57.38,240,140,240,620,SBD,Single-ply
2,59,Open,M,Ka-Ho Mow,,1994,Hong Kong,58.21,155,152.5,180,487.5,SBD,Single-ply
1,66,Open,M,Viki Aryanto,1994-11-12,,Indonesia,65.58,290,200,250,740,SBD,Single-ply
2,66,Open,M,Alexandr Kuramshin,,1986,Kazakhstan,65.47,275,172.5,262.5,710,SBD,Single-ply
3,66,Open,M,Sunil Parashram Konewadkar,1992-08-05,,India,65.99,245,150,230,625,SBD,Single-ply
4,66,Open,M,Ho-Man Cheung,,1986,Hong Kong,65.13,230,160,205,595,SBD,Single-ply
5,66,Open,M,Wing-Fai Hung,,1980,Hong Kong,63.73,165,140,175,480,SBD,Single-ply
DQ,66,Open,M,Yahya Al-Kiyumi,1991-07-06,,Oman,65.91,,175,235,,SBD,Single-ply
1,74,Open,M,Doni Meiyanto,1989-05-10,,Indonesia,73,310,180,300,790,SBD,Single-ply
2,74,Open,M,Pradeep Kumar,1988-05-04,,India,73.64,260,190,260,710,SBD,Single-ply
3,74,Open,M,Sans Kiran,1987-01-23,,India,73.58,270,157.5,265,692.5,SBD,Single-ply
4,74,Open,M,Gupta Vivek Kr,1995-12-05,,India,72.49,277.5,167.5,230,675,SBD,Single-ply
5,74,Open,M,Mansour Almarzooqi,1995-02-03,,UAE,73.35,100,192.5,100,392.5,SBD,Single-ply
DQ,74,Open,M,Aiman Al Hasani,1991-11-12,,Oman,72.72,,165,235,,SBD,Single-ply
1,83,Open,M,Aman Kapyshev,1987-06-25,,Kazakhstan,82.93,320,230,277.5,827.5,SBD,Single-ply
2,83,Open,M,Muhammad Yusuf,1986-08-06,,Indonesia,81.82,285,200,335,820,SBD,Single-ply
3,83,Open,M,Garate Nilesh,1991-12-05,,India,82.3,312.5,207.5,275,795,SBD,Single-ply
4,83,Open,M,Chi-Leung Kam,,1989,Hong Kong,79.4,252.5,210,262.5,725,SBD,Single-ply
5,83,Open,M,Kwan-Lung Chau,,1982,Hong Kong,80.28,235,110,200,545,SBD,Single-ply
6,83,Open,M,Shui-Lun Yu,,1980,Hong Kong,79.1,165,127.5,202.5,495,SBD,Single-ply
1,93,Open,M,Galsaikhan Myagmarsuren,1988-07-21,,Mongolia,92.37,335,260,270,865,SBD,Single-ply
2,93,Open,M,Byambasuren Bayarsaikhan,1985-04-17,,Mongolia,92.71,280,250,260,790,SBD,Single-ply
3,93,Open,M,Masahito Kitsui,,1978,Hong Kong,92.54,225,281.5,230,736.5,SBD,Single-ply
1,105,Open,M,Ilya Maslov,,1989,Kazakhstan,103.9,325,302.5,300,927.5,SBD,Single-ply
2,105,Open,M,Sergei Vaigant,1989-03-18,,Kazakhstan,102.87,285,310,270,865,SBD,Single-ply
3,105,Open,M,Ahmad Abdullah,1986-08-16,,Syria,103.51,305,190,315,810,SBD,Single-ply
4,105,Open,M,Mohammed Alhumaidi,1980-08-08,,UAE,101.2,260,215,280,755,SBD,Single-ply
1,120,Open,M,Sen Yang,1994-08-14,,Taiwan,116.4,420,312.5,310,1042.5,SBD,Single-ply
2,120,Open,M,Evgeniy Kapralov,1993-03-23,,Uzbekistan,118.2,365,260,340,965,SBD,Single-ply
DQ,120,Open,M,Kaduskar Amol,1985-07-01,,India,115.3,,195,220,,SBD,Single-ply
DQ,120,Open,M,Peyman Nezhadi,1988-04-25,,Iran,116.54,,250,295,,SBD,Single-ply
DQ,120,Open,M,Wen-Shuo Yang,1994-09-24,,Taiwan,118.75,,255,297.5,,SBD,Single-ply
1,120+,Open,M,Chi-Sen Tien,1994-03-24,,Taiwan,122.19,390,305,350,1045,SBD,Single-ply
2,120+,Open,M,Yevgeniy Yevdokimov,1980-06-28,,Kazakhstan,128.32,365,250,302.5,917.5,SBD,Single-ply
3,120+,Open,M,Asep Nurdin,1989-09-27,,Indonesia,140.63,350,250,295,895,SBD,Single-ply
4,120+,Open,M,Chai-Chi Fong,,1982,Hong Kong,139.27,275,270,225,770,SBD,Single-ply
DQ,120+,Open,M,Gantulga Batsukh,1981-12-20,,Mongolia,121.32,,,260,,SBD,Single-ply
DQ,120+,Open,M,Krishna V.t Vijin,1995-06-20,,India,138.5,,175,245,,SBD,Single-ply
1,53,Sub-Juniors,M,Ybyray Kamal,2003-04-11,,Kazakhstan,52.78,162.5,100,150,412.5,SBD,Single-ply
2,53,Sub-Juniors,M,Hsiang Yu Wu,2003-09-03,,Taiwan,51.78,150,60,160,370,SBD,Single-ply
3,53,Sub-Juniors,M,Demeusin Zhanzhigitov,2003-02-28,,Kazakhstan,52.5,137.5,77.5,150,365,SBD,Single-ply
4,53,Sub-Juniors,M,Sahu Gaurav,2001-10-26,,India,49.79,132.5,62.5,165,360,SBD,Single-ply
1,59,Sub-Juniors,M,Yu-Cheng Wang,,,Taiwan,58.5,192.5,115,210,517.5,SBD,Single-ply
2,59,Sub-Juniors,M,Dias Shakerkhan,2004-01-24,,Kazakhstan,58.37,167.5,102.5,170,440,SBD,Single-ply
3,59,Sub-Juniors,M,Alvin Lee Pok Hin,,2002,Hong Kong,58.3,110,70,125,305,SBD,Single-ply
1,66,Sub-Juniors,M,Zhu-En Chen,2003-12-13,,Taiwan,63.74,225,122.5,210,557.5,SBD,Single-ply
2,66,Sub-Juniors,M,Yu-De Su,2001-09-20,,Taiwan,64.65,222.5,130,205,557.5,SBD,Single-ply
3,66,Sub-Juniors,M,Wai-Ho Yeung,,2003,Hong Kong,64.21,155,80,160,395,SBD,Single-ply
1,83,Sub-Juniors,M,S. Naveen,2001-07-26,,India,81.1,250,132.5,235,617.5,SBD,Single-ply
2,83,Sub-Juniors,M,Ali Almaazmi,2001-07-25,,UAE,82,150,172.5,220,542.5,SBD,Single-ply
3,83,Sub-Juniors,M,Nursultan Kairzhan,2002-02-04,,Kazakhstan,78.06,195,132.5,200,527.5,SBD,Single-ply
1,93,Sub-Juniors,M,Yaroslav Pozharskiy,,2003,Kazakhstan,83.92,182.5,100,200,482.5,SBD,Single-ply
1,105,Sub-Juniors,M,Bilguun Mungunbaatar,2001-09-26,,Mongolia,103.53,222.5,170,212.5,605,SBD,Single-ply
2,105,Sub-Juniors,M,Stanislav Tretyakov,,2002,Kazakhstan,100.3,232.5,125,185,542.5,SBD,Single-ply
3,105,Sub-Juniors,M,En-Chieh Wang,,2005,Taiwan,97,220,82.5,185,487.5,SBD,Single-ply
1,120,Sub-Juniors,M,Dulguun Mungunbaatar,2001-09-26,,Mongolia,114.95,240,170,205,615,SBD,Single-ply
2,120,Sub-Juniors,M,Mikhail Kamaleyev,,2001,Kazakhstan,116.98,210,140,195,545,SBD,Single-ply
1,120+,Sub-Juniors,M,Ojha Rohit,2002-07-10,,India,132.88,200,90,200,490,SBD,Single-ply
1,53,Juniors,M,Virendra Singh Markam,1998-08-15,,India,51.6,170,105,195,470,SBD,Single-ply
2,53,Juniors,M,You Wu Ming,2000-03-03,,Taiwan,51.69,175,80,195,450,SBD,Single-ply
1,66,Juniors,M,Kamil Abdurashitov,2000-10-04,,Kazakhstan,65.66,210,147.5,215,572.5,SBD,Single-ply
2,66,Juniors,M,Jimmy Sidhan,2000-07-22,,India,64.55,180,112.5,180,472.5,SBD,Single-ply
1,74,Juniors,M,Yu-Jui Cheng,1999-03-26,,Taiwan,71.68,295,167.5,300,762.5,SBD,Single-ply
2,74,Juniors,M,Yin-Ming Luo,1997-09-16,,Taiwan,72.21,232.5,182.5,250,665,SBD,Single-ply
3,74,Juniors,M,Kemron Shirinov,1997-06-10,,Uzbekistan,73.27,237.5,185,237.5,660,SBD,Single-ply
4,74,Juniors,M,Singh Navdeep,2001-05-04,,India,73.77,265,135,260,660,SBD,Single-ply
5,74,Juniors,M,Shakhrizat Zhakypbekov,1997-07-18,,Kazakhstan,73.44,200,182.5,200,582.5,SBD,Single-ply
1,83,Juniors,M,Artyom Shurupkin,2000-10-21,,Kazakhstan,81.34,310,177.5,277.5,765,SBD,Single-ply
2,83,Juniors,M,Yen-Lin Chen,1997-10-09,,Taiwan,81.55,272.5,160,280,712.5,SBD,Single-ply
3,83,Juniors,M,Alkhattab Alsiabi,1998-09-15,,Oman,78.8,260,162.5,270,692.5,SBD,Single-ply
4,83,Juniors,M,Jia-Lun Chang,,1997,Hong Kong,76.9,217.5,160,160,537.5,SBD,Single-ply
1,93,Juniors,M,Viktor Timorskiy,1996-10-10,,Kazakhstan,92.12,287.5,162.5,285,735,SBD,Single-ply
2,93,Juniors,M,Chia-Jung Chang,1998-09-12,,Taiwan,90.95,285,180,240,705,SBD,Single-ply
3,93,Juniors,M,Nabras Awladhthani,1998-06-17,,Oman,91.6,255,162.5,260,677.5,SBD,Single-ply
4,93,Juniors,M,K K Kiran,1996-03-03,,India,92.43,285,130,210,625,SBD,Single-ply
5,93,Juniors,M,Mohammed Awladhthani,2000-05-12,,Oman,84,225,105,220,550,SBD,Single-ply
1,105,Juniors,M,Imam Syahrudin,1998-09-08,,Indonesia,97.8,290,210,290,790,SBD,Single-ply
2,105,Juniors,M,Nasser Alsyabi,2000-07-04,,Oman,101.86,250,105,245,600,SBD,Single-ply
1,120,Juniors,M,Vadim Sassin,,2000,Kazakhstan,118.2,300,190,260,750,SBD,Single-ply
2,120,Juniors,M,Chih-Chun Ma,1996-07-13,,Taiwan,106.74,242.5,185,247.5,675,SBD,Single-ply
3,120,Juniors,M,Dashnyam Dulguunkherlen,2000-02-18,,Mongolia,109.25,252.5,172.5,230,655,SBD,Single-ply
DQ,120,Juniors,M,Fahad Al Nadabi,1998-09-02,,Oman,118.75,,210,275,,SBD,Single-ply
1,120+,Juniors,M,Abhishek B. Horkeri,1998-06-08,,India,130.93,305,205,277.5,787.5,SBD,Single-ply
2,120+,Juniors,M,Abddallah Fadel,1999-03-03,,Syria,129.78,300,170,315,785,SBD,Single-ply
3,120+,Juniors,M,Alexandr Zagrevskiy,,1998,Kazakhstan,122.68,260,155,240,655,SBD,Single-ply
4,120+,Juniors,M,Alazhar Awladhthani,2000-03-03,,Oman,120.4,262.5,115,180,557.5,SBD,Single-ply
1,66,Masters 1,M,Po-Hung Wu,1975-02-08,,Taiwan,63.82,180,130,175,485,SBD,Single-ply
2,66,Masters 1,M,Chandra Sangle Prakash,1972-01-14,,India,65.91,155,85,150,390,SBD,Single-ply
3,66,Masters 1,M,Raikumar Naorem,1976-01-02,,India,62.78,50,80,120,250,SBD,Single-ply
1,74,Masters 1,M,Batbileg Otgonsuren,1977-11-09,,Mongolia,73.71,230,150,255,635,SBD,Single-ply
2,74,Masters 1,M,Manimaran A,1974-04-13,,India,72.9,245,107.5,215,567.5,SBD,Single-ply
3,74,Masters 1,M,Shyh-Yih Ma,1970-09-24,,Taiwan,72.83,205,110,197.5,512.5,SBD,Single-ply
4,74,Masters 1,M,Thomas Lo,1977-04-10,,Hong Kong,73.31,175,132.5,190,497.5,SBD,Single-ply
1,83,Masters 1,M,Sze-Wing Lai,,1976,Hong Kong,80.58,200,120,240,560,SBD,Single-ply
1,93,Masters 1,M,Sergey Fotiev,,,Uzbekistan,91.97,303,162.5,255,720.5,SBD,Single-ply
1,105,Masters 1,M,Munehiro Shiota,1977-10-13,,Japan,94.54,250,170,240,660,SBD,Single-ply
2,105,Masters 1,M,Ziad Mohamad,1972-07-20,,Syria,97.34,110,90,150,350,SBD,Single-ply
1,120,Masters 1,M,Binjwe Girish,1971-10-01,,India,105.95,210,135,215,560,SBD,Single-ply
1,120+,Masters 1,M,Kumar R Sarath,1975-10-03,,India,123.54,280,190,275,745,SBD,Single-ply
1,59,Masters 2,M,Shut-Ming Wong,,,Hong Kong,57.44,132.5,85,140,357.5,SBD,Single-ply
2,59,Masters 2,M,S Sainudheen,,,India,58.23,110,90,135,335,SBD,Single-ply
1,66,Masters 2,M,Pali G.k,,,India,64.66,100,75,120,295,SBD,Single-ply
1,83,Masters 2,M,Vladimir Shkirman,,,Kazakhstan,80.6,240,130,266,636,SBD,Single-ply
2,83,Masters 2,M,Ramachandran T.K,,,India,82.12,220,140,210,570,SBD,Single-ply
3,83,Masters 2,M,Shun-Wai Ray Chan,,,Hong Kong,81.22,155,120,192.5,467.5,SBD,Single-ply
1,93,Masters 2,M,Konstantin Khardin,,,Uzbekistan,89.01,240,127.5,262.5,630,SBD,Single-ply
2,93,Masters 2,M,Hoi Leung,,,Hong Kong,91.18,225,135,245,605,SBD,Single-ply
1,105,Masters 2,M,Rashed Sami,,,UAE,102.12,220,100,125,445,SBD,Single-ply
1,120,Masters 2,M,Chien-Hsiung Chao,,,Taiwan,117.52,210,170,230.5,610.5,SBD,Single-ply
1,83,Masters 3,M,Junzo Ito,,,Japan,79.4,160,155,180,495,SBD,Single-ply
2,83,Masters 3,M,Ka-Bo Gaple Wang,,,Hong Kong,77.41,120,102.5,160,382.5,SBD,Single-ply
1,59,Masters 4,M,Kung-Him Wong,,,Hong Kong,52.39,127.5,92.5,145,365,SBD,Single-ply
1,47,Open,F,Mei-Xiang Liu,1983-06-18,,Taiwan,46.37,145,82.5,140,367.5,SBD,Single-ply
1,52,Open,F,Rebecca Yip Kit-Ying,,1976,Hong Kong,49.73,90,75,110,275,SBD,Single-ply
1,57,Open,F,Suchita Tendolkar,1995-02-28,,India,54.79,157.5,75,147.5,380,SBD,Single-ply
2,57,Open,F,Weilli Yu,,1983,Hong Kong,56.24,165,77.5,137.5,380,SBD,Single-ply
1,63,Open,F,Hsiu-Ching Hung,1995-06-22,,Taiwan,61.98,200,100,215,515,SBD,Single-ply
2,63,Open,F,Yuliya Tomazova,1993-07-26,,Kazakhstan,62.53,190,105,182.5,477.5,SBD,Single-ply
3,63,Open,F,Yu Jie Liu,1984-01-27,,Taiwan,61.31,120,60,140,320,SBD,Single-ply
4,63,Open,F,Pui Yee Chan,,1994,Hong Kong,60.35,102.5,42.5,107.5,252.5,SBD,Single-ply
1,72,Open,F,Mulia Anggraini,1995-12-15,,Indonesia,67.63,211,135,201,547,SBD,Single-ply
2,72,Open,F,Prateeksha B Gaikwad,,1991,India,71.83,180,107.5,170,457.5,SBD,Single-ply
1,84,Open,F,Sonali Gite,1990-03-31,,India,84,220,125,177.5,522.5,SBD,Single-ply
2,84,Open,F,Preeti Temghare,1989-10-21,,India,83.69,200,110,177.5,487.5,SBD,Single-ply
3,84,Open,F,Maryam Doushabchi,,1987,Iran,78.2,175,102.5,180,457.5,SBD,Single-ply
4,84,Open,F,Florence Ho,,1979,Hong Kong,83.1,135,105,145,385,SBD,Single-ply
1,84+,Open,F,Fang-Yun Su,1992-11-14,,Taiwan,122.37,260,140,217.5,617.5,SBD,Single-ply
1,52,Sub-Juniors,F,Adelya Doskul,2003-08-13,,Kazakhstan,51.37,130,75,122.5,327.5,SBD,Single-ply
1,57,Sub-Juniors,F,Yi-Jin Chen,2003-06-11,,Taiwan,53.64,152.5,60,137.5,350,SBD,Single-ply
2,57,Sub-Juniors,F,Pei-Chen Wu,2004-09-02,,Taiwan,56.13,140,65,120,325,SBD,Single-ply
1,63,Sub-Juniors,F,Marina Turpan,,2002,Kazakhstan,58.11,130,57.5,115,302.5,SBD,Single-ply
1,84,Sub-Juniors,F,Yekaterina Skvortsova,2001-07-31,,Kazakhstan,83.28,162.5,90,160,412.5,SBD,Single-ply
2,84,Sub-Juniors,F,Polina Lyzhnik,,2003,Kazakhstan,81.57,110,65,110,285,SBD,Single-ply
1,84+,Sub-Juniors,F,Hsin-Ying Li,2005-08-07,,Taiwan,91.05,175,90,155,420,SBD,Single-ply
1,43,Juniors,F,Ya-Syuan Jheng,1999-11-20,,Taiwan,41.61,133,57.5,122.5,313,SBD,Single-ply
1,47,Juniors,F,Anjali Sangle,1999-07-08,,India,46.85,105,55,115,275,SBD,Single-ply
1,52,Juniors,F,Lilis Suryani,1998-03-27,,Indonesia,51.21,186,95,186,467,SBD,Single-ply
1,63,Juniors,F,Valeriya Kochina,1998-11-08,,Kazakhstan,62.61,180,100,170,450,SBD,Single-ply
2,63,Juniors,F,Chih-Yi Lin,1996-05-15,,Taiwan,61.88,160,80,145,385,SBD,Single-ply
3,63,Juniors,F,Hritvika Sardesai,2000-03-31,,India,62.12,152.5,70,152.5,375,SBD,Single-ply
1,72,Juniors,F,Asel Nurkenova,2000-08-14,,Kazakhstan,70.6,185,117.5,182.5,485,SBD,Single-ply
2,72,Juniors,F,Si Ying Lai,1999-08-06,,Taiwan,67.07,150,100,165,415,SBD,Single-ply
3,72,Juniors,F,Michelle Shen,,1997,Hong Kong,68.25,127.5,52.5,137.5,317.5,SBD,Single-ply
1,84+,Juniors,F,Regina Meier,1999-03-15,,Kazakhstan,110.39,237.5,150,172.5,560,SBD,Single-ply
2,84+,Juniors,F,Yi-Chiao Chang,1997-11-15,,Taiwan,100.41,200,102.5,160,462.5,SBD,Single-ply
1,52,Masters 1,F,Yu-Hsin Hsieh,1977-09-27,,Taiwan,50.39,75,30,117.5,222.5,SBD,Single-ply
1,57,Masters 1,F,Vishnoi Ekta,1973-06-03,,India,54.89,125,75,145,345,SBD,Single-ply
1,72,Masters 1,F,Arun Arthi,1975-03-13,,India,67.18,130,62.5,137.5,330,SBD,Single-ply
2,72,Masters 1,F,Wing-Nga Ho,,1973,Hong Kong,69.4,115,80,110,305,SBD,Single-ply
1,47,Masters 2,F,Wai-Yu Wong,,,Hong Kong,46.3,75,47.5,102.5,225,SBD,Single-ply
1,63,Masters 2,F,Wing-Yuk Ip,,,Hong Kong,61.83,110,70,115,295,SBD,Single-ply
1,72,Masters 2,F,Mei-Mei Chan,,,Hong Kong,63.36,140,84.5,145,369.5,SBD,Single-ply
1,84+,Masters 3,F,Anuja Tendulkar,,,India,102.36,85,60,120,265,SBD,Single-ply
